    {
        "description": "1. Basic Test",
        "urlPath": "https://www.sample.com",
        "httpMethod": "POST",
        "secret": "password",
        "queryString": null,
        "formData": null,
        "debug": true
    }